[
  { "name": "id", "default": "", "label": "*", "type": "text", "options": "" },
  {
    "name": "name",
    "default": "My Device",
    "label": "Profile Name",
    "type": "text",
    "options": ""
  },
  {
    "name": "source",
    "default": "",
    "label": "ALSA Source",
    "type": "text",
    "options": ""
  },
  {
    "name": "gain",
    "default": "1",
    "label": "Gain",
    "type": "text",
    "options": ""
  },
  {
    "name": "bitrate",
    "default": "128",
    "label": "Bitrate",
    "type": "text",
    "options": ""
  },
  {
    "name": "video_codec",
    "default": "libx264",
    "label": "*",
    "type": "text",
    "options": ""
  },
  {
    "name": "audio_codec",
    "default": "aac",
    "label": "Audio Codec",
    "type": "text",
    "options": ""
  },
  {
    "name": "thread_queue_size",
    "default": "2048",
    "label": "Thread Queue Size",
    "type": "text",
    "options": ""
  },
  {
    "name": "niceness",
    "default": "-10",
    "label": "*",
    "type": "text",
    "options": ""
  },
  {
    "name": "streaming_server",
    "default": "",
    "label": "Streaming Server",
    "type": "text",
    "options": ""
  },
  {
    "name": "streaming_key",
    "default": "",
    "label": "Streaming Key",
    "type": "text",
    "options": ""
  },
  {
    "name": "streaming_streamname",
    "default": "",
    "label": "Streaming Name",
    "type": "text",
    "options": ""
  },
  {
    "name": "streaming_username",
    "default": "",
    "label": "Streaming Username",
    "type": "text",
    "options": ""
  },
  {
    "name": "streaming_password",
    "default": "",
    "label": "Streaming Password",
    "type": "password",
    "options": ""
  },
  {
    "name": "public_link",
    "default": "",
    "label": "Public Link",
    "type": "text",
    "options": ""
  }
]
